Untitled
…
Selecting Neccesary Clomns

df_filtered <- df_netflix %>% select(type,title,director,cast,country,release_year,rating,duration,listed_in)
df_filtered

## # A tibble: 6,234 x 9
##    type    title  director  cast  country release_year rating duration listed_in
##    <chr>   <chr>  <chr>     <chr> <chr>          <dbl> <chr>  <chr>    <chr>    
##  1 Movie   Norm ~ Richard ~ Alan~ United~         2019 TV-PG  90 min   Children~
##  2 Movie   Jandi~ <NA>      Jand~ United~         2016 TV-MA  94 min   Stand-Up~
##  3 TV Show Trans~ <NA>      Pete~ United~         2013 TV-Y7~ 1 Season Kids' TV 
##  4 TV Show Trans~ <NA>      Will~ United~         2016 TV-Y7  1 Season Kids' TV 
##  5 Movie   #real~ Fernando~ Nest~ United~         2017 TV-14  99 min   Comedies 
##  6 TV Show Apach~ <NA>      Albe~ Spain           2016 TV-MA  1 Season Crime TV~
##  7 Movie   Autom~ Gabe Ib~ Anto~ Bulgar~         2014 R      110 min  Internat~
##  8 Movie   Fabri~ Rodrigo ~ Fabr~ Chile           2017 TV-MA  60 min   Stand-Up~
##  9 TV Show Fire ~ <NA>      <NA>  United~         2017 TV-MA  1 Season Docuseri~
## 10 Movie   Good ~ Henrik R~ Jame~ United~         2014 R      90 min   Action &~
## # ... with 6,224 more rows
…
International Movies have most produced in Turkey in Netflix.

Filtring International Movies on Turkey

int_movies<- df_tr%>%subset(., grepl("International Movies", listed_in))
 
int_movies

## # A tibble: 60 x 9
##    type  title  director  cast    country release_year rating duration listed_in
##    <chr> <chr>  <chr>     <chr>   <chr>          <dbl> <chr>  <chr>    <chr>    
##  1 Movie Act o~ Mahsun K~ Haluk ~ Turkey~         2010 NR     112 min  Action &~
##  2 Movie Delih~ Gupse z~ Gupse ~ Turkey          2018 TV-PG  102 min  Comedies~
##  3 Movie Trave~ Bedran G~ Oguzha~ Turkey          2018 TV-14  111 min  Comedies~
##  4 Movie Locke~ Kivan B~ Ata De~ Turkey          2018 TV-14  105 min  Comedies~
##  5 Movie Broth~ Onur Bil~ Cem Ge~ Turkey          2019 TV-14  110 min  Comedies~
##  6 Movie Conse~ Ozan Ai~ Nehir ~ Turkey          2014 TV-MA  106 min  Dramas, ~
##  7 Movie Love,~ Yilmaz E~ Aylin ~ Turkey          2017 TV-14  95 min   Comedies~
##  8 Movie Clair~ Yesim Us~ Funda ~ Turkey~         2016 TV-MA  102 min  Dramas, ~
##  9 Movie Bygon~ Hakan Al~ Ata De~ Turkey          2017 TV-MA  104 min  Comedies~
## 10 Movie Bana ~ Burak Ak~ Hande ~ Turkey          2015 TV-14  103 min  Comedies~
## # ... with 50 more rows
…
